{
  "development": {
    "username": "nicolas",
    "password": null,
    "database": "dl-pt-db",
    "host": "127.0.0.1",
    "dialect": "postgres"
  },
  "test": {
    "username": "nicolas",
    "password": null,
    "database": "dl-pt-db",
    "host": "127.0.0.1",
    "dialect": "postgres"
  },
  "production": {
    "username": "nicolas",
    "password": null,
    "database": "dl-pt-db",
    "host": "127.0.0.1",
    "dialect": "postgres"
  }
}
